30531 Problem Set 2
…
filter(mpg, cyl == 8)

## # A tibble: 70 x 11
##    manufacturer model displ  year   cyl trans drv     cty   hwy fl    cla~
##    <chr>        <chr> <dbl> <int> <int> <chr> <chr> <int> <int> <chr> <ch>
##  1 audi         a6 q~   4.2  2008     8 auto~ 4        16    23 p     mid~
##  2 chevrolet    c150~   5.3  2008     8 auto~ r        14    20 r     suv 
##  3 chevrolet    c150~   5.3  2008     8 auto~ r        11    15 e     suv 
##  4 chevrolet    c150~   5.3  2008     8 auto~ r        14    20 r     suv 
##  5 chevrolet    c150~   5.7  1999     8 auto~ r        13    17 r     suv 
##  6 chevrolet    c150~   6    2008     8 auto~ r        12    17 r     suv 
##  7 chevrolet    corv~   5.7  1999     8 manu~ r        16    26 p     2se~
##  8 chevrolet    corv~   5.7  1999     8 auto~ r        15    23 p     2se~
##  9 chevrolet    corv~   6.2  2008     8 manu~ r        16    26 p     2se~
## 10 chevrolet    corv~   6.2  2008     8 auto~ r        15    25 p     2se~
## # ... with 60 more rows

filter(diamonds, carat > 3)

## # A tibble: 32 x 10
##    carat cut     color clarity depth table price     x     y     z
##    <dbl> <ord>   <ord> <ord>   <dbl> <dbl> <int> <dbl> <dbl> <dbl>
##  1  3.01 Premium I     I1       62.7    58  8040  9.1   8.97  5.67
##  2  3.11 Fair    J     I1       65.9    57  9823  9.15  9.02  5.98
##  3  3.01 Premium F     I1       62.2    56  9925  9.24  9.13  5.73
##  4  3.05 Premium E     I1       60.9    58 10453  9.26  9.25  5.66
##  5  3.02 Fair    I     I1       65.2    56 10577  9.11  9.02  5.91
##  6  3.01 Fair    H     I1       56.1    62 10761  9.54  9.38  5.31
##  7  3.65 Fair    H     I1       67.1    53 11668  9.53  9.48  6.38
##  8  3.24 Premium H     I1       62.1    58 12300  9.44  9.4   5.85
##  9  3.22 Ideal   I     I1       62.6    55 12545  9.49  9.42  5.92
## 10  3.5  Ideal   H     I1       62.8    57 12587  9.65  9.59  6.03
## # ... with 22 more rows
…
1.5 Transformations: Filter rows with filter()

library(nycflights13)
flights <-nycflights13::flights

#1. Had an arrival delay of three or more hours 
filter(flights, arr_delay>=180)

## # A tibble: 3,897 x 19
##     year month   day dep_time sched_dep_time dep_delay arr_time
##    <int> <int> <int>    <int>          <int>     <dbl>    <int>
##  1  2013     1     1      848           1835       853     1001
##  2  2013     1     1     1815           1325       290     2120
##  3  2013     1     1     1842           1422       260     1958
##  4  2013     1     1     2006           1630       216     2230
##  5  2013     1     1     2115           1700       255     2330
##  6  2013     1     1     2205           1720       285       46
##  7  2013     1     1     2312           2000       192       21
##  8  2013     1     1     2343           1724       379      314
##  9  2013     1     2     1244            900       224     1431
## 10  2013     1     2     1332            904       268     1616
## # ... with 3,887 more rows, and 12 more variables: sched_arr_time <int>,
## #   arr_delay <dbl>, carrier <chr>, flight <int>, tailnum <chr>,
## #   origin <chr>, dest <chr>, air_time <dbl>, distance <dbl>, hour <dbl>,
## #   minute <dbl>, time_hour <dttm>

#2. Flew to Houston (IAH or HOU)
filter(flights,dest=="IAH" |dest=="HOU")

## # A tibble: 9,313 x 19
##     year month   day dep_time sched_dep_time dep_delay arr_time
##    <int> <int> <int>    <int>          <int>     <dbl>    <int>
##  1  2013     1     1      517            515         2      830
##  2  2013     1     1      533            529         4      850
##  3  2013     1     1      623            627        -4      933
##  4  2013     1     1      728            732        -4     1041
##  5  2013     1     1      739            739         0     1104
##  6  2013     1     1      908            908         0     1228
##  7  2013     1     1     1028           1026         2     1350
##  8  2013     1     1     1044           1045        -1     1352
##  9  2013     1     1     1114            900       134     1447
## 10  2013     1     1     1205           1200         5     1503
## # ... with 9,303 more rows, and 12 more variables: sched_arr_time <int>,
## #   arr_delay <dbl>, carrier <chr>, flight <int>, tailnum <chr>,
## #   origin <chr>, dest <chr>, air_time <dbl>, distance <dbl>, hour <dbl>,
## #   minute <dbl>, time_hour <dttm>

#3. Were operated by United, American, or Southwest
carkep<-c("UA","AA","WN")
filter(flights,carrier%in%carkep)

## # A tibble: 103,669 x 19
##     year month   day dep_time sched_dep_time dep_delay arr_time
##    <int> <int> <int>    <int>          <int>     <dbl>    <int>
##  1  2013     1     1      517            515         2      830
##  2  2013     1     1      533            529         4      850
##  3  2013     1     1      542            540         2      923
##  4  2013     1     1      554            558        -4      740
##  5  2013     1     1      558            600        -2      753
##  6  2013     1     1      558            600        -2      924
##  7  2013     1     1      558            600        -2      923
##  8  2013     1     1      559            600        -1      941
##  9  2013     1     1      559            600        -1      854
## 10  2013     1     1      606            610        -4      858
## # ... with 103,659 more rows, and 12 more variables: sched_arr_time <int>,
## #   arr_delay <dbl>, carrier <chr>, flight <int>, tailnum <chr>,
## #   origin <chr>, dest <chr>, air_time <dbl>, distance <dbl>, hour <dbl>,
## #   minute <dbl>, time_hour <dttm>

#4. Departed in spring (March, April, and June)
moskep<-c(3,4,6)
filter(flights,month%in%moskep)

## # A tibble: 85,407 x 19
##     year month   day dep_time sched_dep_time dep_delay arr_time
##    <int> <int> <int>    <int>          <int>     <dbl>    <int>
##  1  2013     3     1        4           2159       125      318
##  2  2013     3     1       50           2358        52      526
##  3  2013     3     1      117           2245       152      223
##  4  2013     3     1      454            500        -6      633
##  5  2013     3     1      505            515       -10      746
##  6  2013     3     1      521            530        -9      813
##  7  2013     3     1      537            540        -3      856
##  8  2013     3     1      541            545        -4     1014
##  9  2013     3     1      549            600       -11      639
## 10  2013     3     1      550            600       -10      747
## # ... with 85,397 more rows, and 12 more variables: sched_arr_time <int>,
## #   arr_delay <dbl>, carrier <chr>, flight <int>, tailnum <chr>,
## #   origin <chr>, dest <chr>, air_time <dbl>, distance <dbl>, hour <dbl>,
## #   minute <dbl>, time_hour <dttm>

#5. Arrived more than two hours late, but didn leave late
filter(flights,arr_delay>120&dep_delay<=0)

## # A tibble: 29 x 19
##     year month   day dep_time sched_dep_time dep_delay arr_time
##    <int> <int> <int>    <int>          <int>     <dbl>    <int>
##  1  2013     1    27     1419           1420        -1     1754
##  2  2013    10     7     1350           1350         0     1736
##  3  2013    10     7     1357           1359        -2     1858
##  4  2013    10    16      657            700        -3     1258
##  5  2013    11     1      658            700        -2     1329
##  6  2013     3    18     1844           1847        -3       39
##  7  2013     4    17     1635           1640        -5     2049
##  8  2013     4    18      558            600        -2     1149
##  9  2013     4    18      655            700        -5     1213
## 10  2013     5    22     1827           1830        -3     2217
## # ... with 19 more rows, and 12 more variables: sched_arr_time <int>,
## #   arr_delay <dbl>, carrier <chr>, flight <int>, tailnum <chr>,
## #   origin <chr>, dest <chr>, air_time <dbl>, distance <dbl>, hour <dbl>,
## #   minute <dbl>, time_hour <dttm>

#6. Were delayed by at least an hour, but made up over 30 minutes in ght 
filter(flights,dep_delay>=60&(arr_delay-dep_delay)<=-30)

## # A tibble: 2,074 x 19
##     year month   day dep_time sched_dep_time dep_delay arr_time
##    <int> <int> <int>    <int>          <int>     <dbl>    <int>
##  1  2013     1     1     1716           1545        91     2140
##  2  2013     1     1     2205           1720       285       46
##  3  2013     1     1     2326           2130       116      131
##  4  2013     1     3     1503           1221       162     1803
##  5  2013     1     3     1821           1530       171     2131
##  6  2013     1     3     1839           1700        99     2056
##  7  2013     1     3     1850           1745        65     2148
##  8  2013     1     3     1923           1815        68     2036
##  9  2013     1     3     1941           1759       102     2246
## 10  2013     1     3     1950           1845        65     2228
## # ... with 2,064 more rows, and 12 more variables: sched_arr_time <int>,
## #   arr_delay <dbl>, carrier <chr>, flight <int>, tailnum <chr>,
## #   origin <chr>, dest <chr>, air_time <dbl>, distance <dbl>, hour <dbl>,
## #   minute <dbl>, time_hour <dttm>

#7. Departed between midnight and 5am (inclusive) 
filter(flights,dep_time>0&dep_time<=500|dep_time==2400)

## # A tibble: 1,516 x 19
##     year month   day dep_time sched_dep_time dep_delay arr_time
##    <int> <int> <int>    <int>          <int>     <dbl>    <int>
##  1  2013     1     2       42           2359        43      518
##  2  2013     1     2      126           2250       156      233
##  3  2013     1     2      458            500        -2      703
##  4  2013     1     3       32           2359        33      504
##  5  2013     1     3       50           2145       185      203
##  6  2013     1     3      235           2359       156      700
##  7  2013     1     3      458            500        -2      650
##  8  2013     1     4       25           2359        26      505
##  9  2013     1     4      106           2245       141      201
## 10  2013     1     4      456            500        -4      631
## # ... with 1,506 more rows, and 12 more variables: sched_arr_time <int>,
## #   arr_delay <dbl>, carrier <chr>, flight <int>, tailnum <chr>,
## #   origin <chr>, dest <chr>, air_time <dbl>, distance <dbl>, hour <dbl>,
## #   minute <dbl>, time_hour <dttm>

The green point that has the lowest gas mileage is a caravan 2wd made by dodge in 2008.

drvf<-filter(mpg,drv=="f")
arrange(drvf,cty)

## # A tibble: 106 x 11
##    manufacturer model displ  year   cyl trans drv     cty   hwy fl    cla~
##    <chr>        <chr> <dbl> <int> <int> <chr> <chr> <int> <int> <chr> <ch>
##  1 dodge        cara~   3.3  2008     6 auto~ f        11    17 e     min~
##  2 dodge        cara~   3.8  1999     6 auto~ f        15    22 r     min~
##  3 dodge        cara~   3.8  1999     6 auto~ f        15    21 r     min~
##  4 audi         a4      2.8  1999     6 auto~ f        16    26 p     com~
##  5 dodge        cara~   3.3  1999     6 auto~ f        16    22 r     min~
##  6 dodge        cara~   3.3  1999     6 auto~ f        16    22 r     min~
##  7 dodge        cara~   3.8  2008     6 auto~ f        16    23 r     min~
##  8 dodge        cara~   4    2008     6 auto~ f        16    23 r     min~
##  9 hyundai      tibu~   2.7  2008     6 manu~ f        16    24 r     sub~
## 10 pontiac      gran~   3.8  1999     6 auto~ f        16    26 p     mid~
## # ... with 96 more rows
…
#wrong
filter(flights, arr_time == NA)

## # A tibble: 0 x 19
## # ... with 19 variables: year <int>, month <int>, day <int>,
## #   dep_time <int>, sched_dep_time <int>, dep_delay <dbl>, arr_time <int>,
## #   sched_arr_time <int>, arr_delay <dbl>, carrier <chr>, flight <int>,
## #   tailnum <chr>, origin <chr>, dest <chr>, air_time <dbl>,
## #   distance <dbl>, hour <dbl>, minute <dbl>, time_hour <dttm>

#right
filter(flights, is.na(arr_time))

## # A tibble: 8,713 x 19
##     year month   day dep_time sched_dep_time dep_delay arr_time
##    <int> <int> <int>    <int>          <int>     <dbl>    <int>
##  1  2013     1     1     2016           1930        46       NA
##  2  2013     1     1       NA           1630        NA       NA
##  3  2013     1     1       NA           1935        NA       NA
##  4  2013     1     1       NA           1500        NA       NA
##  5  2013     1     1       NA            600        NA       NA
##  6  2013     1     2     2041           2045        -4       NA
##  7  2013     1     2     2145           2129        16       NA
##  8  2013     1     2       NA           1540        NA       NA
##  9  2013     1     2       NA           1620        NA       NA
## 10  2013     1     2       NA           1355        NA       NA
## # ... with 8,703 more rows, and 12 more variables: sched_arr_time <int>,
## #   arr_delay <dbl>, carrier <chr>, flight <int>, tailnum <chr>,
## #   origin <chr>, dest <chr>, air_time <dbl>, distance <dbl>, hour <dbl>,
## #   minute <dbl>, time_hour <dttm>

There are 8255 ghts have a missing dep_time. Other variables like dep_delay,arr_time arr_delay,tailnum and air_time are also missing.These rows might represent the flights that did not depart at all.

misdept<-filter(flights, is.na(dep_time))
print(misdept)

## # A tibble: 8,255 x 19
##     year month   day dep_time sched_dep_time dep_delay arr_time
##    <int> <int> <int>    <int>          <int>     <dbl>    <int>
##  1  2013     1     1       NA           1630        NA       NA
##  2  2013     1     1       NA           1935        NA       NA
##  3  2013     1     1       NA           1500        NA       NA
##  4  2013     1     1       NA            600        NA       NA
##  5  2013     1     2       NA           1540        NA       NA
##  6  2013     1     2       NA           1620        NA       NA
##  7  2013     1     2       NA           1355        NA       NA
##  8  2013     1     2       NA           1420        NA       NA
##  9  2013     1     2       NA           1321        NA       NA
## 10  2013     1     2       NA           1545        NA       NA
## # ... with 8,245 more rows, and 12 more variables: sched_arr_time <int>,
## #   arr_delay <dbl>, carrier <chr>, flight <int>, tailnum <chr>,
## #   origin <chr>, dest <chr>, air_time <dbl>, distance <dbl>, hour <dbl>,
## #   minute <dbl>, time_hour <dttm>

After tering by arr_time == 1800, observations with missing values in arr_time are cleared out from the dataframe. Because the outcome of NA==1800 is not TRUE.

arr1800<-filter(flights, arr_time==1800)
print(arr1800)

## # A tibble: 407 x 19
##     year month   day dep_time sched_dep_time dep_delay arr_time
##    <int> <int> <int>    <int>          <int>     <dbl>    <int>
##  1  2013     1     2     1442           1430        12     1800
##  2  2013     1     2     1600           1501        59     1800
##  3  2013     1     2     1603           1517        46     1800
##  4  2013     1     3     1602           1600         2     1800
##  5  2013     1     4     1658           1705        -7     1800
##  6  2013     1     5     1607           1615        -8     1800
##  7  2013     1     7     1706           1710        -4     1800
##  8  2013     1     8     1451           1455        -4     1800
##  9  2013     1    10     1525           1530        -5     1800
## 10  2013     1    10     1659           1705        -6     1800
## # ... with 397 more rows, and 12 more variables: sched_arr_time <int>,
## #   arr_delay <dbl>, carrier <chr>, flight <int>, tailnum <chr>,
## #   origin <chr>, dest <chr>, air_time <dbl>, distance <dbl>, hour <dbl>,
## #   minute <dbl>, time_hour <dttm>
…
NA | TRUE

## [1] TRUE

FALSE & NA evaluates to FALSE. Because missing values are ignored in conditional expressions and there is a FALSE in an and condition.

FALSE & NA

## [1] FALSE

1.6 Transformations: Sort columns with arrange

arrange(flights,desc(is.na(arr_time)))

## # A tibble: 336,776 x 19
##     year month   day dep_time sched_dep_time dep_delay arr_time
##    <int> <int> <int>    <int>          <int>     <dbl>    <int>
##  1  2013     1     1     2016           1930        46       NA
##  2  2013     1     1       NA           1630        NA       NA
##  3  2013     1     1       NA           1935        NA       NA
##  4  2013     1     1       NA           1500        NA       NA
##  5  2013     1     1       NA            600        NA       NA
##  6  2013     1     2     2041           2045        -4       NA
##  7  2013     1     2     2145           2129        16       NA
##  8  2013     1     2       NA           1540        NA       NA
##  9  2013     1     2       NA           1620        NA       NA
## 10  2013     1     2       NA           1355        NA       NA
## # ... with 336,766 more rows, and 12 more variables: sched_arr_time <int>,
## #   arr_delay <dbl>, carrier <chr>, flight <int>, tailnum <chr>,
## #   origin <chr>, dest <chr>, air_time <dbl>, distance <dbl>, hour <dbl>,
## #   minute <dbl>, time_hour <dttm>

arrange(flights,desc(arr_delay))

## # A tibble: 336,776 x 19
##     year month   day dep_time sched_dep_time dep_delay arr_time
##    <int> <int> <int>    <int>          <int>     <dbl>    <int>
##  1  2013     1     9      641            900      1301     1242
##  2  2013     6    15     1432           1935      1137     1607
##  3  2013     1    10     1121           1635      1126     1239
##  4  2013     9    20     1139           1845      1014     1457
##  5  2013     7    22      845           1600      1005     1044
##  6  2013     4    10     1100           1900       960     1342
##  7  2013     3    17     2321            810       911      135
##  8  2013     7    22     2257            759       898      121
##  9  2013    12     5      756           1700       896     1058
## 10  2013     5     3     1133           2055       878     1250
## # ... with 336,766 more rows, and 12 more variables: sched_arr_time <int>,
## #   arr_delay <dbl>, carrier <chr>, flight <int>, tailnum <chr>,
## #   origin <chr>, dest <chr>, air_time <dbl>, distance <dbl>, hour <dbl>,
## #   minute <dbl>, time_hour <dttm>

arrange(flights,dep_delay)

## # A tibble: 336,776 x 19
##     year month   day dep_time sched_dep_time dep_delay arr_time
##    <int> <int> <int>    <int>          <int>     <dbl>    <int>
##  1  2013    12     7     2040           2123       -43       40
##  2  2013     2     3     2022           2055       -33     2240
##  3  2013    11    10     1408           1440       -32     1549
##  4  2013     1    11     1900           1930       -30     2233
##  5  2013     1    29     1703           1730       -27     1947
##  6  2013     8     9      729            755       -26     1002
##  7  2013    10    23     1907           1932       -25     2143
##  8  2013     3    30     2030           2055       -25     2213
##  9  2013     3     2     1431           1455       -24     1601
## 10  2013     5     5      934            958       -24     1225
## # ... with 336,766 more rows, and 12 more variables: sched_arr_time <int>,
## #   arr_delay <dbl>, carrier <chr>, flight <int>, tailnum <chr>,
## #   origin <chr>, dest <chr>, air_time <dbl>, distance <dbl>, hour <dbl>,
## #   minute <dbl>, time_hour <dttm>
…
