Problem Set 3
…
not_cancelled <- filter(flights,
                        !is.na(dep_delay) & !is.na(arr_delay))

# 1
not_cancelled %>% 
  group_by(dest) %>%
  summarise(n = n())

## # A tibble: 104 x 2
##    dest      n
##    <chr> <int>
##  1 ABQ     254
##  2 ACK     264
##  3 ALB     418
##  4 ANC       8
##  5 ATL   16837
##  6 AUS    2411
##  7 AVL     261
##  8 BDL     412
##  9 BGR     358
## 10 BHM     269
## # ... with 94 more rows

# Check if it is the same
not_cancelled %>% count(dest)

## # A tibble: 104 x 2
##    dest      n
##    <chr> <int>
##  1 ABQ     254
##  2 ACK     264
##  3 ALB     418
##  4 ANC       8
##  5 ATL   16837
##  6 AUS    2411
##  7 AVL     261
##  8 BDL     412
##  9 BGR     358
## 10 BHM     269
## # ... with 94 more rows

# 2
not_cancelled %>% count(tailnum, wt = distance)

## # A tibble: 4,037 x 2
##    tailnum      n
##    <chr>    <dbl>
##  1 D942DN    3418
##  2 N0EGMQ  239143
##  3 N10156  109664
##  4 N102UW   25722
##  5 N103US   24619
##  6 N104UW   24616
##  7 N10575  139903
##  8 N105UW   23618
##  9 N107US   21677
## 10 N108UW   32070
## # ... with 4,027 more rows

# Check if it is the same
not_cancelled %>% 
  group_by(tailnum) %>%
  summarise(n=sum(distance))

## # A tibble: 4,037 x 2
##    tailnum      n
##    <chr>    <dbl>
##  1 D942DN    3418
##  2 N0EGMQ  239143
##  3 N10156  109664
##  4 N102UW   25722
##  5 N103US   24619
##  6 N104UW   24616
##  7 N10575  139903
##  8 N105UW   23618
##  9 N107US   21677
## 10 N108UW   32070
## # ... with 4,027 more rows
…
According to the table below, we can see that flights to CAE is the worst and to LEX is the best.

flights %>%
  group_by(dest) %>%
  summarize(mean_arrdelay = mean(arr_delay, na.rm = TRUE)) %>%
  mutate(rank_arrdelay = min_rank(-mean_arrdelay)) %>%
  arrange(rank_arrdelay) 

## # A tibble: 105 x 3
##    dest  mean_arrdelay rank_arrdelay
##    <chr>         <dbl>         <int>
##  1 CAE            41.8             1
##  2 TUL            33.7             2
##  3 OKC            30.6             3
##  4 JAC            28.1             4
##  5 TYS            24.1             5
##  6 MSN            20.2             6
##  7 RIC            20.1             7
##  8 CAK            19.7             8
##  9 DSM            19.0             9
## 10 GRR            18.2            10
## # ... with 95 more rows

1.2 Transformations: Grouped operations with mutate() (and filter())

N179JB has the most minutes of delay total. Thats 4449 minutes in total.

flights <- nycflights13::flights
t_delay <- 
  flights %>%
  group_by(tailnum) %>%
  summarise(t_delay_minutes=sum(arr_delay))
(r_t_delay<-arrange(t_delay,desc(t_delay_minutes)))

## # A tibble: 4,044 x 2
##    tailnum t_delay_minutes
##    <chr>             <dbl>
##  1 N179JB             4449
##  2 N914XJ             3152
##  3 N598JB             3034
##  4 N629JB             2620
##  5 N203FR             2424
##  6 N826UA             2347
##  7 N502UA             2199
##  8 N648JB             2198
##  9 N591JB             2172
## 10 N433UA             1941
## # ... with 4,034 more rows
…
The following is all the destinations that are own by at least two carriers.

flights %>%
  group_by(dest) %>%
  filter(n_distinct(carrier) >= 2) %>%
  summarise()

## # A tibble: 76 x 1
##    dest 
##    <chr>
##  1 ATL  
##  2 AUS  
##  3 AVL  
##  4 BDL  
##  5 BGR  
##  6 BNA  
##  7 BOS  
##  8 BQN  
##  9 BTV  
## 10 BUF  
## # ... with 66 more rows

#a
f_gby <-
  flights %>%
  arrange(origin, dest, month, day, sched_dep_time) %>%
  group_by(origin, month, day)

f_lag <- f_gby %>%
  mutate(dif_delay = dep_delay - lag(dep_delay), na.rm = TRUE) %>%
  select(dif_delay, everything())

f_lag

## # A tibble: 336,776 x 21
## # Groups:   origin, month, day [1,095]
##    dif_delay  year month   day dep_time sched_dep_time dep_delay arr_time
##        <dbl> <int> <int> <int>    <int>          <int>     <dbl>    <int>
##  1        NA  2013     1     1     1315           1317        -2     1413
##  2        36  2013     1     1     1655           1621        34     1804
##  3        18  2013     1     1     2056           2004        52     2156
##  4        NA  2013     1     2     1332           1327         5     1419
##  5        80  2013     1     2     1746           1621        85     1835
##  6        19  2013     1     2     2148           2004       104     2234
##  7        NA  2013     1     3     1716           1619        57     1803
##  8       -64  2013     1     3     2031           2038        -7     2131
##  9        NA  2013     1     4     1618           1619        -1     1714
## 10        32  2013     1     4     2031           2000        31     2131
## # ... with 336,766 more rows, and 13 more variables: sched_arr_time <int>,
## #   arr_delay <dbl>, carrier <chr>, flight <int>, tailnum <chr>,
## #   origin <chr>, dest <chr>, air_time <dbl>, distance <dbl>, hour <dbl>,
## #   minute <dbl>, time_hour <dttm>, na.rm <lgl>
…
N703TW, N593JB, N578UA and N5DBAA were the most delayed in the air.

Flights like N956DL, N947UW, N12567 are suspiciously fast because the probablities of air time being short like this is less than 1e-19.

#a
dif_median <-
  flights %>%
  group_by(tailnum, dest) %>%
  mutate(dif_median = air_time - median(air_time), na.rm = TRUE)
dif_median %>% select(dif_median, tailnum, everything()) %>% arrange(desc(dif_median))

## # A tibble: 336,776 x 21
## # Groups:   tailnum, dest [44,465]
##    dif_median tailnum  year month   day dep_time sched_dep_time dep_delay
##         <dbl> <chr>   <int> <int> <int>    <int>          <int>     <dbl>
##  1      146   N703TW   2013     7    28     1727           1730        -3
##  2      111   N593JB   2013    12    20     2052           2045         7
##  3      108   N578UA   2013     9    10     1513           1507         6
##  4      106   N5DBAA   2013     1    28     1806           1700        66
##  5       98   N328JB   2013     6    29      755            800        -5
##  6       97.5 N794JB   2013    12     7     1646           1620        26
##  7       94.5 N309JB   2013     2    11     1149           1155        -6
##  8       94   N16149   2013     1    15     1957           1935        22
##  9       94   N192DN   2013     7    10     1814           1815        -1
## 10       90   N466UA   2013     2    11     1248           1251        -3
## # ... with 336,766 more rows, and 13 more variables: arr_time <int>,
## #   sched_arr_time <int>, arr_delay <dbl>, carrier <chr>, flight <int>,
## #   origin <chr>, dest <chr>, air_time <dbl>, distance <dbl>, hour <dbl>,
## #   minute <dbl>, time_hour <dttm>, na.rm <lgl>
…
The variable before_1st displays the number of ights before the rst delay of greater than 1 hour.

flights %>%
  group_by(year, month, day) %>%
  arrange(dep_time) %>%
  mutate(delay1h = if_else(arr_delay > 60, 1, 0), 
         first_delay1h = cumsum(delay1h), 
         before_1st = sum(first_delay1h == 0, na.rm = TRUE)) %>%
  select(before_1st, everything())

## # A tibble: 336,776 x 22
## # Groups:   year, month, day [365]
##    before_1st  year month   day dep_time sched_dep_time dep_delay arr_time
##         <int> <int> <int> <int>    <int>          <int>     <dbl>    <int>
##  1          0  2013     1    13        1           2249        72      108
##  2          0  2013     1    31        1           2100       181      124
##  3        148  2013    11    13        1           2359         2      442
##  4          1  2013    12    16        1           2359         2      447
##  5        146  2013    12    20        1           2359         2      430
##  6        112  2013    12    26        1           2359         2      437
##  7          3  2013    12    30        1           2359         2      441
##  8          0  2013     2    11        1           2100       181      111
##  9          0  2013     2    24        1           2245        76      121
## 10          1  2013     3     8        1           2355         6      431
## # ... with 336,766 more rows, and 14 more variables: sched_arr_time <int>,
## #   arr_delay <dbl>, carrier <chr>, flight <int>, tailnum <chr>,
## #   origin <chr>, dest <chr>, air_time <dbl>, distance <dbl>, hour <dbl>,
## #   minute <dbl>, time_hour <dttm>, delay1h <dbl>, first_delay1h <dbl>
…
