30531 Problem Set 5
…
The total number of cases of TB cases is as following.

#1
total_num <- 
  who_tidy %>% 
  group_by(country, year, sex) %>%
  summarise(total_num = sum(value, na.rm = TRUE)) %>%   
  filter(year >= 1997) 

print(total_num)

## # A tibble: 7,272 x 4
## # Groups:   country, year [3,636]
##    country      year sex   total_num
##    <chr>       <int> <chr>     <int>
##  1 Afghanistan  1997 f           102
##  2 Afghanistan  1997 m            26
##  3 Afghanistan  1998 f          1207
##  4 Afghanistan  1998 m           571
##  5 Afghanistan  1999 f           517
##  6 Afghanistan  1999 m           228
##  7 Afghanistan  2000 f          1751
##  8 Afghanistan  2000 m           915
##  9 Afghanistan  2001 f          3062
## 10 Afghanistan  2001 m          1577
## # ... with 7,262 more rows
…
Because raw values only give the information of absolute numbers of cases, the link between sex and TB cases is not clearly demonstrated in raw values.

ratio_sex <- 
  total_num %>% 
  spread(key = sex, value = total_num) %>%
  mutate(ratio = f/m)
print(ratio_sex)

## # A tibble: 3,636 x 5
## # Groups:   country, year [3,636]
##    country      year     f     m ratio
##    <chr>       <int> <int> <int> <dbl>
##  1 Afghanistan  1997   102    26  3.92
##  2 Afghanistan  1998  1207   571  2.11
##  3 Afghanistan  1999   517   228  2.27
##  4 Afghanistan  2000  1751   915  1.91
##  5 Afghanistan  2001  3062  1577  1.94
##  6 Afghanistan  2002  4418  2091  2.11
##  7 Afghanistan  2003  4423  2105  2.10
##  8 Afghanistan  2004  5587  2658  2.10
##  9 Afghanistan  2005  6818  3131  2.18
## 10 Afghanistan  2006  8520  3949  2.16
## # ... with 3,626 more rows
…
provider_hhrg <-
  provider_hhrg %>%
  mutate(cli_level_l = str_sub(str_trim(cli_level), 1,1), cli_level_r = str_sub(str_trim(cli_level),-1,-1),
         fuc_level_l = str_sub(str_trim(fuc_level), 1,1), fuc_level_r = str_sub(str_trim(fuc_level),-1,-1),
         ser_level_l = str_sub(str_trim(ser_level), 1,1), ser_level_r = str_sub(str_trim(ser_level),-1,-1),
         episode = str_trim(episode),
         visit = str_trim(visit)) %>%
  unite(cli_level,cli_level_l,cli_level_r,sep = "") %>%
  unite(fuc_level,fuc_level_l,fuc_level_r,sep = "") %>%
  unite(ser_level,ser_level_l,ser_level_r,sep = "") 

drops <- c("cli_level_l","cli_level_r","fuc_level_l","fuc_level_r", "ser_level_l", "ser_level_r")
provider_hhrg[ , !(names(provider_hhrg) %in% drops)]

## # A tibble: 104,920 x 25
##    `Provider ID` `Agency Name` `Street Address` City  State `Zip Code`
##            <dbl> <chr>         <chr>            <chr> <chr> <chr>     
##  1         17009 ALACARE HOME~ 2970 LORNA ROAD  BIRM~ AL    35216     
##  2         17009 ALACARE HOME~ 2970 LORNA ROAD  BIRM~ AL    35216     
##  3         17009 ALACARE HOME~ 2970 LORNA ROAD  BIRM~ AL    35216     
##  4         17009 ALACARE HOME~ 2970 LORNA ROAD  BIRM~ AL    35216     
##  5         17009 ALACARE HOME~ 2970 LORNA ROAD  BIRM~ AL    35216     
##  6         17009 ALACARE HOME~ 2970 LORNA ROAD  BIRM~ AL    35216     
##  7         17009 ALACARE HOME~ 2970 LORNA ROAD  BIRM~ AL    35216     
##  8         17009 ALACARE HOME~ 2970 LORNA ROAD  BIRM~ AL    35216     
##  9         17009 ALACARE HOME~ 2970 LORNA ROAD  BIRM~ AL    35216     
## 10         17009 ALACARE HOME~ 2970 LORNA ROAD  BIRM~ AL    35216     
## # ... with 104,910 more rows, and 19 more variables: HHRG <chr>, `HHRG
## #   Description` <chr>, episode <chr>, visit <chr>, `Total
## #   Episodes` <dbl>, `Distinct Beneficiaries` <dbl>, `Average Number of
## #   Total Visits Per Episode` <dbl>, `Average Number of Skilled Nursing
## #   Visits` <dbl>, `Average Number of PT Visits` <dbl>, `Average Number of
## #   OT Visits` <dbl>, `Average Number of ST Visits` <dbl>, `Average Number
## #   of HH Aide Visits` <dbl>, `Average Number of Medical-Social
## #   Visits` <dbl>, `Average HHA Charge Amount` <dbl>, `Average HHA
## #   Medicare Payment Amount` <dbl>, `Average HHA Medicare Standard Payment
…
provider_hhrg_wt <-
  inner_join(provider_hhrg, case_mix_weight, by = c("episode", "visit", "cli_level", "fuc_level", "ser_level"))

## Warning: Column `episode` joining character vector and factor, coercing
## into character vector

## Warning: Column `visit` joining character vector and factor, coercing into
## character vector

provider_hhrg_wt

## # A tibble: 104,920 x 28
##    `Provider ID` `Agency Name` `Street Address` City  State `Zip Code`
##            <dbl> <chr>         <chr>            <chr> <chr> <chr>     
##  1         17009 ALACARE HOME~ 2970 LORNA ROAD  BIRM~ AL    35216     
##  2         17009 ALACARE HOME~ 2970 LORNA ROAD  BIRM~ AL    35216     
##  3         17009 ALACARE HOME~ 2970 LORNA ROAD  BIRM~ AL    35216     
##  4         17009 ALACARE HOME~ 2970 LORNA ROAD  BIRM~ AL    35216     
##  5         17009 ALACARE HOME~ 2970 LORNA ROAD  BIRM~ AL    35216     
##  6         17009 ALACARE HOME~ 2970 LORNA ROAD  BIRM~ AL    35216     
##  7         17009 ALACARE HOME~ 2970 LORNA ROAD  BIRM~ AL    35216     
##  8         17009 ALACARE HOME~ 2970 LORNA ROAD  BIRM~ AL    35216     
##  9         17009 ALACARE HOME~ 2970 LORNA ROAD  BIRM~ AL    35216     
## 10         17009 ALACARE HOME~ 2970 LORNA ROAD  BIRM~ AL    35216     
## # ... with 104,910 more rows, and 22 more variables: HHRG <chr>, `HHRG
## #   Description` <chr>, episode <chr>, visit <chr>, `Total
## #   Episodes` <dbl>, `Distinct Beneficiaries` <dbl>, `Average Number of
## #   Total Visits Per Episode` <dbl>, `Average Number of Skilled Nursing
## #   Visits` <dbl>, `Average Number of PT Visits` <dbl>, `Average Number of
## #   OT Visits` <dbl>, `Average Number of ST Visits` <dbl>, `Average Number
## #   of HH Aide Visits` <dbl>, `Average Number of Medical-Social
## #   Visits` <dbl>, `Average HHA Charge Amount` <dbl>, `Average HHA
## #   Medicare Payment Amount` <dbl>, `Average HHA Medicare Standard Payment
…
