PS7
…
In general, the proportion of people identifying as Democrat is relatively stable, the proportion of people identifying as Republican is declining after 2004 and the proportion of people identifying as Independent is increasing after 2004.

par_sum <- 
  gss_cat %>% 
  group_by(year) %>% 
  summarise(prop_Demo = sum(str_detect(partyid, "democrat"))/n(),
            prop_Rep  = sum(str_detect(partyid, "republican"))/n(),
            prop_Ind  = sum(str_detect(partyid, "Ind"))/n()
            )
par_sum <- gather(par_sum, key = "party", value = "proportion", -year)

print(par_sum)

## # A tibble: 24 x 3
##     year party     proportion
##    <int> <chr>          <dbl>
##  1  2000 prop_Demo      0.327
##  2  2002 prop_Demo      0.334
##  3  2004 prop_Demo      0.341
##  4  2006 prop_Demo      0.318
##  5  2008 prop_Demo      0.356
##  6  2010 prop_Demo      0.341
##  7  2012 prop_Demo      0.354
##  8  2014 prop_Demo      0.325
##  9  2000 prop_Rep       0.243
## 10  2002 prop_Rep       0.276
## # ... with 14 more rows
…
For these violation types, if the original fine is not higher than 250 dollars, it is increased to 250. If the violation type is NO CITY STICKER VEHICLE OVER 16,000 LBS and is fined 500 dollars, then it will increase to 775 dollars.

tickets_1pct <- 
  read_csv("D:\\R\\dataset\\parking_tickets_one_percent.csv", 
           col_types = cols(ticket_number = col_double())
           )

## Warning: Missing column names filled in: 'X1' [1]

not_dble<- tickets_1pct %>%
  filter(fine_level2_amount != fine_level1_amount*2) %>% 
  select(violation_description, fine_level1_amount, fine_level2_amount, everything())
not_dble

## # A tibble: 4,004 x 24
##    violation_descr~ fine_level1_amo~ fine_level2_amo~    X1 ticket_number
##    <chr>                       <int>            <int> <int>         <dbl>
##  1 DISABLED PARKIN~              200              250    14      52432501
##  2 DISABLED PARKIN~              200              250    27      51638401
##  3 PARK OR BLOCK A~              150              250    41      51507201
##  4 PARK OR BLOCK A~              150              250    47      51540701
##  5 PARK OR BLOCK A~              150              250    68      51401001
##  6 PARK OR BLOCK A~              150              250   152      51368301
##  7 DISABLED PARKIN~              200              250   172      51352501
##  8 DISABLED PARKIN~              200              250   182    9065922201
##  9 DISABLED PARKIN~              200              250   201      51492101
## 10 DISABLED PARKIN~              200              250   331      51262001
## # ... with 3,994 more rows, and 19 more variables: issue_date <dttm>,
## #   violation_location <chr>, license_plate_number <chr>,
## #   license_plate_state <chr>, license_plate_type <chr>, zipcode <chr>,
## #   violation_code <chr>, unit <int>, unit_description <chr>,
## #   vehicle_make <chr>, current_amount_due <dbl>, total_payments <dbl>,
## #   ticket_queue <chr>, ticket_queue_date <date>, notice_level <chr>,
## #   hearing_disposition <chr>, notice_number <dbl>, officer <chr>,
## #   address <chr>
…
tickets_1pct %>%
  group_by(violation_description) %>%
  summarise(n_code = n_distinct(violation_code))

## # A tibble: 119 x 2
##    violation_description                   n_code
##    <chr>                                    <int>
##  1 2 REAR TRAILER LAMPS REQ'D VISIBLE 500'      1
##  2 20'OF CROSSWALK                              1
##  3 3-7 AM SNOW ROUTE                            2
##  4 ABANDONED VEH. FOR 7 DAYS OR INOPERABLE      1
##  5 BACK-UP LAMP LIT DURING OPERATION            1
##  6 BLOCK ACCESS/ALLEY/DRIVEWAY/FIRELANE         1
##  7 BLOCK ALLEY                                  1
##  8 BRAKES REQUIRED DURING OPERATION             1
##  9 BRAKES REQUIRED IN GOOD WORKING ORDER        1
## 10 BURGLAR ALARM SOUNDING OVER 4 MINUTES        1
## # ... with 109 more rows

tickets_1pct %>%
  group_by(violation_description, violation_code) %>%
  summarise(n_tickets = n()) 

## # A tibble: 124 x 3
## # Groups:   violation_description [?]
##    violation_description                   violation_code n_tickets
##    <chr>                                   <chr>              <int>
##  1 2 REAR TRAILER LAMPS REQ'D VISIBLE 500' 0976050E               4
##  2 20'OF CROSSWALK                         0964100F             393
##  3 3-7 AM SNOW ROUTE                       0964060              827
##  4 3-7 AM SNOW ROUTE                       0964060B              12
##  5 ABANDONED VEH. FOR 7 DAYS OR INOPERABLE 0980110A            1104
##  6 BACK-UP LAMP LIT DURING OPERATION       0976070C               2
##  7 BLOCK ACCESS/ALLEY/DRIVEWAY/FIRELANE    0964100C            1579
##  8 BLOCK ALLEY                             0964130B              20
##  9 BRAKES REQUIRED DURING OPERATION        0976010A               1
## 10 BRAKES REQUIRED IN GOOD WORKING ORDER   0976020E               1
## # ... with 114 more rows

tickets_1pct %>%
  group_by(violation_code) %>%
  summarise(n_code = n_distinct(violation_description))

## # A tibble: 116 x 2
##    violation_code n_code
##    <chr>           <int>
##  1 0912060             1
##  2 0940060             1
##  3 0940080             1
##  4 0940170             1
##  5 0940220             1
##  6 0964020A            1
##  7 0964020B            1
##  8 0964020C            1
##  9 0964030B            1
## 10 0964040B            2
## # ... with 106 more rows

tickets_1pct %>%
  group_by(violation_code, violation_description) %>%
  summarise(n_tickets = n()) 

## # A tibble: 124 x 3
## # Groups:   violation_code [?]
##    violation_code violation_description                           n_tickets
##    <chr>          <chr>                                               <int>
##  1 0912060        STAND, PARK, OR OTHER USE OF BUS LANE                1233
##  2 0940060        PARK/STAND ON BICYCLE PATH                            236
##  3 0940080        PARKED/STANDING UNATTENDED W/MOTOR RUNNI               81
##  4 0940170        UNSAFE CONDITION                                       64
##  5 0940220        NO OPERATOR SIGNAL                                     32
##  6 0964020A       WRONG DIRECTION OR 12'' FROM CURB                    1111
##  7 0964020B       OBSTRUCT ROADWAY                                     1577
##  8 0964020C       PARK MOTORCYCLE/SCOOTER PARK AT 90 DEGREE ANGLE        14
##  9 0964030B       OUTSIDE DIAGONAL MARKINGS                             110
## 10 0964040B       STREET CLEANING                                     28712
## # ... with 114 more rows

Yes. Items like EXPIRED PLATES OR TEMPORARY REGISTRATION and EXPIRED PLATE OR TEMPORARY REGISTRATION seem redundant. EXPIRED PLATES OR TEMPORARY REGISTRATION corresponds to violation code 0976160F and EXPIRED PLATE OR TEMPORARY REGISTRATION corresponds to 0976160B

top_50 <- 
  tickets_1pct %>%
  group_by(violation_description) %>%
  summarise(n = n(), violation_code = first(violation_code)) %>%
  arrange(desc(n)) %>%
  slice(1:50)

print(top_50)

## # A tibble: 50 x 3
##    violation_description                                  n violation_code
##    <chr>                                              <int> <chr>         
##  1 EXPIRED PLATES OR TEMPORARY REGISTRATION           44811 0976160F      
##  2 STREET CLEANING                                    28712 0964040B      
##  3 RESIDENTIAL PERMIT PARKING                         23683 0964090E      
##  4 EXP. METER NON-CENTRAL BUSINESS DISTRICT           20600 0964190A      
##  5 PARKING/STANDING PROHIBITED ANYTIME                19753 0964150B      
##  6 EXPIRED METER OR OVERSTAY                          18756 0964190       
##  7 REAR AND FRONT PLATE REQUIRED                      15829 0976160A      
##  8 NO CITY STICKER VEHICLE UNDER/EQUAL TO 16,000 LBS. 14246 0964125B      
##  9 RUSH HOUR PARKING                                  11965 0964080A      
## 10 NO CITY STICKER OR IMPROPER DISPLAY                10773 0964125       
## # ... with 40 more rows
…
Three ticket types she should have increased: EXPIRED METER OR OVERSTAY, EXPIRED PLATES OR TEMPORARY REGISTRATION and STREET CLEANING.

Reason: In order to maximize the revenue increase, we need to take into consideration both whether the number of issued tickets under a certain violation type is large enough and whether the repayment rate is high enough. Therefore we can construct a viable margin = tickets number * repayment rate, which represents how much revenue is increased if we increase the fine for the violation type by 1 dollar(Assuming there is no behavioral response). We choose EXPIRED METER OR OVERSTAY, EXPIRED PLATES OR TEMPORARY REGISTRATION and STREET CLEANING because they can provide highest margin.

for_revenue <- 
  tickets_1pct %>%
  mutate(year = str_sub(issue_date, 1, 4)) %>%
  filter(as.numeric(year) < 2012) %>%
  group_by(violation_description) %>%
  summarise(n = n(), rate_repay = sum(ticket_queue == "Paid", na.rm = TRUE)/n(), margin = n*rate_repay) %>%
  arrange(desc(margin))

print(for_revenue)

## # A tibble: 99 x 4
##    violation_description                        n rate_repay margin
##    <chr>                                    <int>      <dbl>  <dbl>
##  1 EXPIRED METER OR OVERSTAY                18117      0.805  14580
##  2 EXPIRED PLATES OR TEMPORARY REGISTRATION 21906      0.608  13316
##  3 STREET CLEANING                          11370      0.825   9383
##  4 RESIDENTIAL PERMIT PARKING               11452      0.761   8718
##  5 PARKING/STANDING PROHIBITED ANYTIME       9673      0.727   7032
##  6 NO CITY STICKER OR IMPROPER DISPLAY      10558      0.545   5752
##  7 RUSH HOUR PARKING                         7121      0.783   5576
##  8 REAR AND FRONT PLATE REQUIRED             8339      0.608   5066
##  9 EXP. METER NON-CENTRAL BUSINESS DISTRICT  3503      0.842   2951
## 10 STREET CLEANING OR SPECIAL EVENT          3370      0.788   2654
## # ... with 89 more rows
…
